fifo_dipesh_git/fifo_dipesh_git.sim/sim_1/synth/timing/xsim/f.vcd
$date
   Sun Aug 14 16:40:27 2022
$end
$version
  2022.1
$end
$timescale
  1ps
$end
$scope module test $end
$var reg 1 ! reset $end
$var reg 1 " clk $end
$var reg 1 # read_n $end
$var reg 1 $ write_n $end
$var wire 1 % full $end
$var wire 1 & empty $end
$var wire 1 ' invalid $end
$var reg 8 ( data_in [7:0] $end
$var wire 8 ) data_out [7:0] $end
$scope module dut1 $end
$var wire 1 * clk $end
$var wire 1 + clk_IBUF $end
$var wire 1 , clk_IBUF_BUFG $end
$var wire 8 - data_in [7:0] $end
$var wire 8 . data_in_IBUF [7:0] $end
$var wire 8 ) data_out [7:0] $end
$var wire 1 / \data_out[0]_i_1_n_0  $end
$var wire 1 0 \data_out[0]_i_2_n_0  $end
$var wire 1 1 \data_out[0]_i_3_n_0  $end
$var wire 1 2 \data_out[0]_i_4_n_0  $end
$var wire 1 3 \data_out[0]_i_5_n_0  $end
$var wire 1 4 \data_out[0]_i_6_n_0  $end
$var wire 1 5 \data_out[1]_i_1_n_0  $end
$var wire 1 6 \data_out[1]_i_2_n_0  $end
$var wire 1 7 \data_out[1]_i_3_n_0  $end
$var wire 1 8 \data_out[1]_i_4_n_0  $end
$var wire 1 9 \data_out[1]_i_5_n_0  $end
$var wire 1 : \data_out[1]_i_6_n_0  $end
$var wire 1 ; \data_out[2]_i_1_n_0  $end
$var wire 1 < \data_out[2]_i_2_n_0  $end
$var wire 1 = \data_out[2]_i_3_n_0  $end
$var wire 1 > \data_out[2]_i_4_n_0  $end
$var wire 1 ? \data_out[2]_i_5_n_0  $end
$var wire 1 @ \data_out[2]_i_6_n_0  $end
$var wire 1 A \data_out[3]_i_1_n_0  $end
$var wire 1 B \data_out[3]_i_2_n_0  $end
$var wire 1 C \data_out[3]_i_3_n_0  $end
$var wire 1 D \data_out[3]_i_4_n_0  $end
$var wire 1 E \data_out[3]_i_5_n_0  $end
$var wire 1 F \data_out[3]_i_6_n_0  $end
$var wire 1 G \data_out[4]_i_1_n_0  $end
$var wire 1 H \data_out[4]_i_2_n_0  $end
$var wire 1 I \data_out[4]_i_3_n_0  $end
$var wire 1 J \data_out[4]_i_4_n_0  $end
$var wire 1 K \data_out[4]_i_5_n_0  $end
$var wire 1 L \data_out[4]_i_6_n_0  $end
$var wire 1 M \data_out[5]_i_1_n_0  $end
$var wire 1 N \data_out[5]_i_2_n_0  $end
$var wire 1 O \data_out[5]_i_3_n_0  $end
$var wire 1 P \data_out[5]_i_4_n_0  $end
$var wire 1 Q \data_out[5]_i_5_n_0  $end
$var wire 1 R \data_out[5]_i_6_n_0  $end
$var wire 1 S \data_out[6]_i_1_n_0  $end
$var wire 1 T \data_out[6]_i_2_n_0  $end
$var wire 1 U \data_out[6]_i_3_n_0  $end
$var wire 1 V \data_out[6]_i_4_n_0  $end
$var wire 1 W \data_out[6]_i_5_n_0  $end
$var wire 1 X \data_out[6]_i_6_n_0  $end
$var wire 1 Y \data_out[7]_i_1_n_0  $end
$var wire 1 Z \data_out[7]_i_2_n_0  $end
$var wire 1 [ \data_out[7]_i_3_n_0  $end
$var wire 1 \ \data_out[7]_i_4_n_0  $end
$var wire 1 ] \data_out[7]_i_5_n_0  $end
$var wire 1 ^ \data_out[7]_i_6_n_0  $end
$var wire 1 _ \data_out[7]_i_7_n_0  $end
$var wire 8 ` data_out_OBUF [7:0] $end
$var wire 1 & empty $end
$var wire 1 a empty_OBUF $end
$var wire 1 % full $end
$var wire 1 b full_OBUF $end
$var wire 1 ' invalid $end
$var wire 1 c invalid_OBUF $end
$var wire 1 d invalid_i_1_n_0 $end
$var wire 1 e \mem[0][7]_i_1_n_0  $end
$var wire 1 f \mem[0][7]_i_2_n_0  $end
$var wire 1 g \mem[10][0]_i_1_n_0  $end
$var wire 1 h \mem[10][1]_i_1_n_0  $end
$var wire 1 i \mem[10][2]_i_1_n_0  $end
$var wire 1 j \mem[10][3]_i_1_n_0  $end
$var wire 1 k \mem[10][4]_i_1_n_0  $end
$var wire 1 l \mem[10][5]_i_1_n_0  $end
$var wire 1 m \mem[10][6]_i_1_n_0  $end
$var wire 1 n \mem[10][7]_i_1_n_0  $end
$var wire 1 o \mem[10][7]_i_2_n_0  $end
$var wire 1 p \mem[10][7]_i_3_n_0  $end
$var wire 1 q \mem[11][7]_i_1_n_0  $end
$var wire 1 r \mem[12][0]_i_1_n_0  $end
$var wire 1 s \mem[12][1]_i_1_n_0  $end
$var wire 1 t \mem[12][2]_i_1_n_0  $end
$var wire 1 u \mem[12][3]_i_1_n_0  $end
$var wire 1 v \mem[12][4]_i_1_n_0  $end
$var wire 1 w \mem[12][5]_i_1_n_0  $end
$var wire 1 x \mem[12][6]_i_1_n_0  $end
$var wire 1 y \mem[12][7]_i_1_n_0  $end
$var wire 1 z \mem[12][7]_i_2_n_0  $end
$var wire 1 { \mem[12][7]_i_3_n_0  $end
$var wire 1 | \mem[12][7]_i_4_n_0  $end
$var wire 1 } \mem[13][0]_i_1_n_0  $end
$var wire 1 ~ \mem[13][1]_i_1_n_0  $end
$var wire 1 !! \mem[13][2]_i_1_n_0  $end
$var wire 1 "! \mem[13][3]_i_1_n_0  $end
$var wire 1 #! \mem[13][4]_i_1_n_0  $end
$var wire 1 $! \mem[13][5]_i_1_n_0  $end
$var wire 1 %! \mem[13][6]_i_1_n_0  $end
$var wire 1 &! \mem[13][7]_i_1_n_0  $end
$var wire 1 '! \mem[13][7]_i_2_n_0  $end
$var wire 1 (! \mem[14][0]_i_1_n_0  $end
$var wire 1 )! \mem[14][1]_i_1_n_0  $end
$var wire 1 *! \mem[14][2]_i_1_n_0  $end
$var wire 1 +! \mem[14][3]_i_1_n_0  $end
$var wire 1 ,! \mem[14][4]_i_1_n_0  $end
$var wire 1 -! \mem[14][5]_i_1_n_0  $end
$var wire 1 .! \mem[14][6]_i_1_n_0  $end
$var wire 1 /! \mem[14][7]_i_1_n_0  $end
$var wire 1 0! \mem[14][7]_i_2_n_0  $end
$var wire 1 1! \mem[1][7]_i_1_n_0  $end
$var wire 1 2! \mem[2][7]_i_1_n_0  $end
$var wire 1 3! \mem[2][7]_i_2_n_0  $end
$var wire 1 4! \mem[3][7]_i_1_n_0  $end
$var wire 1 5! \mem[4][0]_i_1_n_0  $end
$var wire 1 6! \mem[4][1]_i_1_n_0  $end
$var wire 1 7! \mem[4][2]_i_1_n_0  $end
$var wire 1 8! \mem[4][3]_i_1_n_0  $end
$var wire 1 9! \mem[4][4]_i_1_n_0  $end
$var wire 1 :! \mem[4][5]_i_1_n_0  $end
$var wire 1 ;! \mem[4][6]_i_1_n_0  $end
$var wire 1 <! \mem[4][7]_i_1_n_0  $end
$var wire 1 =! \mem[4][7]_i_2_n_0  $end
$var wire 1 >! \mem[4][7]_i_3_n_0  $end
$var wire 1 ?! \mem[5][7]_i_1_n_0  $end
$var wire 1 @! \mem[6][7]_i_1_n_0  $end
$var wire 1 A! \mem[7][0]_i_1_n_0  $end
$var wire 1 B! \mem[7][1]_i_1_n_0  $end
$var wire 1 C! \mem[7][2]_i_1_n_0  $end
$var wire 1 D! \mem[7][3]_i_1_n_0  $end
$var wire 1 E! \mem[7][4]_i_1_n_0  $end
$var wire 1 F! \mem[7][5]_i_1_n_0  $end
$var wire 1 G! \mem[7][6]_i_1_n_0  $end
$var wire 1 H! \mem[7][7]_i_1_n_0  $end
$var wire 1 I! \mem[7][7]_i_2_n_0  $end
$var wire 1 J! \mem[8][7]_i_1_n_0  $end
$var wire 1 K! \mem[8][7]_i_2_n_0  $end
$var wire 1 L! \mem[9][0]_i_1_n_0  $end
$var wire 1 M! \mem[9][1]_i_1_n_0  $end
$var wire 1 N! \mem[9][2]_i_1_n_0  $end
$var wire 1 O! \mem[9][3]_i_1_n_0  $end
$var wire 1 P! \mem[9][4]_i_1_n_0  $end
$var wire 1 Q! \mem[9][5]_i_1_n_0  $end
$var wire 1 R! \mem[9][6]_i_1_n_0  $end
$var wire 1 S! \mem[9][7]_i_1_n_0  $end
$var wire 1 T! \mem[9][7]_i_2_n_0  $end
$var wire 8 U! \mem_reg[0]  [7:0] $end
$var wire 8 V! \mem_reg[10]  [7:0] $end
$var wire 8 W! \mem_reg[11]  [7:0] $end
$var wire 8 X! \mem_reg[12]  [7:0] $end
$var wire 8 Y! \mem_reg[13]  [7:0] $end
$var wire 8 Z! \mem_reg[14]  [7:0] $end
$var wire 8 [! \mem_reg[1]  [7:0] $end
$var wire 8 \! \mem_reg[2]  [7:0] $end
$var wire 8 ]! \mem_reg[3]  [7:0] $end
$var wire 8 ^! \mem_reg[4]  [7:0] $end
$var wire 8 _! \mem_reg[5]  [7:0] $end
$var wire 8 `! \mem_reg[6]  [7:0] $end
$var wire 8 a! \mem_reg[7]  [7:0] $end
$var wire 8 b! \mem_reg[8]  [7:0] $end
$var wire 8 c! \mem_reg[9]  [7:0] $end
$var wire 4 d! rd_pointer [3:0] $end
$var wire 1 e! \rd_pointer[0]_i_1_n_0  $end
$var wire 1 f! \rd_pointer[1]_i_1_n_0  $end
$var wire 1 g! \rd_pointer[2]_i_1_n_0  $end
$var wire 1 h! \rd_pointer[3]_i_1_n_0  $end
$var wire 1 i! \rd_pointer[3]_i_2_n_0  $end
$var wire 1 j! read_n $end
$var wire 1 k! read_n_IBUF $end
$var wire 1 l! reset $end
$var wire 1 m! reset_IBUF $end
$var wire 4 n! wr_pointer [3:0] $end
$var wire 1 o! \wr_pointer[0]_i_1_n_0  $end
$var wire 1 p! \wr_pointer[1]_i_1_n_0  $end
$var wire 1 q! \wr_pointer[2]_i_1_n_0  $end
$var wire 1 r! \wr_pointer[3]_i_1_n_0  $end
$var wire 1 s! \wr_pointer[3]_i_2_n_0  $end
$var wire 1 t! \wr_pointer[3]_i_3_n_0  $end
$var wire 1 u! \wr_pointer[3]_i_4_n_0  $end
$var wire 1 v! write_n $end
$var wire 1 w! write_n_IBUF $end
$upscope $end
$scope task rst $end
$upscope $end
$scope task read $end
$upscope $end
$scope task write $end
$var reg 8 x! wr_data [7:0] $end
$upscope $end
$upscope $end
$enddefinitions $end
#0
$dumpvars
x!
x!!
0"
x"!
x#
x#!
x$
x$!
x%
x%!
x&
x&!
x'
x'!
bx (
x(!
bx )
x)!
0*
x*!
x+
x+!
x,
x,!
bx -
x-!
bx .
x.!
x/
x/!
x0
x0!
x1
x1!
x2
x2!
x3
x3!
x4
x4!
x5
x5!
x6
x6!
x7
x7!
x8
x8!
x9
x9!
x:
x:!
x;
x;!
x<
x<!
x=
x=!
x>
x>!
x?
x?!
x@
x@!
xA
xA!
xB
xB!
xC
xC!
xD
xD!
xE
xE!
xF
xF!
xG
xG!
xH
xH!
xI
xI!
xJ
xJ!
xK
xK!
xL
xL!
xM
xM!
xN
xN!
xO
xO!
xP
xP!
xQ
xQ!
xR
xR!
xS
xS!
xT
xT!
xU
bx U!
xV
bx V!
xW
bx W!
xX
bx X!
xY
bx Y!
xZ
bx Z!
x[
bx [!
x\
bx \!
x]
bx ]!
x^
bx ^!
x_
bx _!
bx `
bx `!
xa
bx a!
xb
bx b!
xc
bx c!
xd
bx d!
xe
xe!
xf
xf!
xg
xg!
xh
xh!
xi
xi!
xj
xj!
xk
xk!
xl
xl!
xm
xm!
xn
bx n!
xo
xo!
xp
xp!
xq
xq!
xr
xr!
xs
xs!
xt
xt!
xu
xu!
xv
xv!
xw
xw!
xx
bx x!
xy
xz
x{
x|
x}
x~
$end
#96
x,
#116
x(!
x)!
x*!
x+!
x,!
x-!
x.!
x0!
xA!
xC!
xE!
xG!
xI!
xi!
xp!
x|
#124
x!!
x"!
x#!
x$!
x%!
x&!
x'!
x/
x/!
x0
x1
x1!
x2
x2!
x3
x3!
x4
x4!
x5
x6
x7
x8
x9
x:
x;
x<
x<!
x=
x=!
x>
x?
x?!
x@
x@!
xA
xB
xB!
xC
xD
xD!
xE
xF
xF!
xG
xH
xH!
xI
xJ
xJ!
xK
xK!
xL
xM
xN
xO
xP
xQ
xR
xS
xS!
xT
xU
xV
xW
xX
xY
xZ
x[
x\
x]
x^
x_
xa
xb
xd
xe
xf
xh!
xn
xo
xq
xq!
xs!
xt!
xu!
xy
xz
x}
x~
#362
b0 U!
b0 V!
b0 W!
b0 X!
b0 Y!
b0 Z!
b0 [!
b0 \!
b0 ]!
b0 ^!
b0 _!
b0 `
b0 `!
b0 a!
b0 b!
0c
b0 c!
b0 d!
b0 n!
#844
x5!
x6!
x7!
x8!
x9!
x:!
x;!
x>!
0L!
0M!
0N!
0O!
0P!
0Q!
0R!
0T!
1e!
xf!
xg!
#960
0A!
0C!
0E!
0G!
0I!
#968
0!!
0"!
0#!
0$!
0%!
0'!
01
07
0=
0B!
0C
0D!
0F!
0I
0O
0U
0[
0b
0}
0~
#971
0+
bx .
xk!
xm!
xw!
#1003
0f!
xg!
0r
0s
0t
0u
0v
0w
0x
0{
#1127
0q
#1153
0(!
0)!
0*!
0+!
0,!
0-!
0.!
00!
#1296
0g!
xo!
#1323
0&!
0/!
00
03
04
04!
06
09
0:
0<
0?
0@
0@!
0B
0E
0F
0H
0H!
0K
0L
0N
0Q
0R
0S!
0T
0W
0X
0Z
0]
0^
0q!
#1345
0i!
#1420
01!
0?!
1a
#1444
0p!
#1622
0_
0s!
#1869
0,
#2179
12
18
1>
1D
1J
1P
1V
1\
#2633
x%
x&
x'
bx )
#2752
0/
05
0;
0A
0G
0M
0S
0Y
#3973
0'
b0 )
#4404
0%
#4856
1&
#5000
1"
1*
#5971
1+
#6869
1,
#10000
1!
0"
0#
0$
0*
0j!
1l!
0v!
#10971
0+
0k!
1m!
0w!
#11773
0g
0h
0i
0j
0k
0l
0m
0o!
0p
1r!
#11869
0,
#11889
1|
#11897
13!
1=!
1J!
1K!
1e
1f
1h!
1n
1o
1t!
0u!
1z
#12346
0o!
1r!
#12470
12!
1<!
1d
1y
#15000
1"
1*
#15971
1+
#16869
1,
#20000
0!
0"
1#
0*
1j!
0l!
#20971
0+
1k!
0m!
#21773
xg
xh
xi
xj
xk
xl
xm
xp
0r!
#21869
0,
#21897
03!
0=!
0J!
0K!
0e
0f
0h!
0n
0o
1u!
0z
#22346
0o!
#22470
02!
0<!
0d
0y
#25000
1"
1*
#25971
1+
#26869
1,
#28000
0#
1$
b11 (
b11 -
0j!
1v!
b11 x!
#28971
b11 .
0k!
1w!
#29773
15!
16!
07!
08!
09!
0:!
0;!
0>!
0L!
0M!
0N!
0O!
0P!
0Q!
0R!
0T!
1g
1h
0i
0j
0k
0l
0m
1o!
0p
0r
0s
0t
0u
0v
0w
0x
0{
#29889
0|
#29897
1d
1f
0t!
#30000
0"
0*
#30346
1r!
#30971
0+
#31869
0,
#35000
1"
1*
#35971
1+
#36869
1,
#38000
1$
b110 (
b110 -
1v!
b110 x!
#38971
b110 .
#39773
05!
17!
0L!
0N!
0g
1i
0r
0t
#40000
0"
0*
#40971
0+
#41869
0,
#45000
1"
1*
#45971
1+
#46869
1,
#48000
1#
0$
1j!
0v!
#48971
1k!
0w!
#49773
0o!
#49889
1|
#49897
0d
0f
1t!
#50000
0"
0*
#50346
0r!
#50971
0+
#51869
0,
#55000
1"
1*
#55971
1+
#56869
1,
#58000
1#
1j!
#60000
0"
0*
#60971
0+
#61869
0,
#65000
1"
1*
#65971
1+
#66869
1,
#68000
0#
1$
b1101 (
b1101 -
0j!
1v!
b1101 x!
#68971
b1101 .
0k!
1w!
#69773
15!
06!
18!
0L!
0M!
0O!
1g
0h
1j
1o!
0r
0s
0u
#69889
0|
#69897
1d
1f
0t!
#70000
0"
0*
#70346
1r!
#70971
0+
#71869
0,
#75000
1"
1*
#75971
1+
#76869
1,
#78000
1$
b100 (
b100 -
1v!
b100 x!
#78971
b100 .
#79773
05!
08!
0L!
0O!
0g
0j
0r
0u
#80000
0"
0*
#80971
0+
#81869
0,
#85000
1"
1*
#85971
1+
#86869
1,
#88000
1$
b101 (
b101 -
1v!
b101 x!
#88971
b101 .
#89773
15!
0L!
1g
0r
#90000
0"
0*
#90971
0+
#91869
0,
#95000
1"
1*
#95971
1+
#96869
1,
#98000
1$
b1000 (
b1000 -
1v!
b1000 x!
#98971
b1000 .
#99773
05!
07!
18!
0L!
0N!
0O!
0g
0i
1j
0r
0t
0u
#100000
0"
0*
#100971
0+
#101869
0,
#105000
1"
1*
#105971
1+
#106869
1,
#107815
b1000 U!
b1 n!
#108000
1$
b10 (
b10 -
1v!
b10 x!
#108297
0L!
0M!
0N!
1O!
0P!
0Q!
0R!
0T!
#108421
1E
#108749
0o!
#108776
0a
#108798
1p!
#108873
11!
#108916
0f
#108971
b10 .
#109773
16!
08!
1M!
0O!
1h
0j
0s
0u
#110000
0"
0*
#110971
0+
#111869
0,
#112212
0&
#115000
1"
1*
#115971
1+
#116869
1,
#117815
b10 [!
b10 n!
#118000
1$
b1001 (
b1001 -
1v!
b1001 x!
#118297
0L!
0M!
0N!
0O!
0P!
0Q!
0R!
0T!
#118749
1o!
#118776
14!
1a
#118798
0p!
#118873
01!
13!
0a
#118897
1p!
#118916
04!
#118971
b1001 .
#119773
15!
06!
18!
0L!
0M!
0O!
1g
0h
1j
0r
0s
0u
#120000
0"
0*
#120971
0+
#121869
0,
#122212
1&
#122309
0&
#125000
1"
1*
#125971
1+
#126869
1,
#127815
b1001 \!
b11 n!
#128000
1$
b1 (
b1 -
1v!
b1 x!
#128297
1L!
0M!
0N!
1O!
0P!
0Q!
0R!
0T!
#128580
03!
1q!
#128749
0o!
#128798
0p!
#128916
14!
#128971
b1 .
#129075
12!
#129153
02!
#129773
08!
0O!
0j
0u
#130000
0"
0*
#130971
0+
#131869
0,
#135000
1"
1*
#135971
1+
#136869
1,
#137815
b1 ]!
b100 n!
#138000
1$
b101 (
b101 -
1v!
b101 x!
#138297
0L!
0M!
0N!
0O!
0P!
0Q!
0R!
0T!
#138580
13!
04!
0q!
#138749
1o!
#138776
03!
1q!
#138798
1p!
#138873
1@!
#138897
0p!
#138916
1=!
0@!
#138971
b101 .
#139153
12!
#139349
02!
#139773
17!
0N!
1i
0t
#140000
0"
0*
#140971
0+
#141869
0,
#145000
1"
1*
#145971
1+
#146869
1,
#147815
b101 ^!
b101 n!
#148000
1$
b1001 (
b1001 -
1v!
b1001 x!
#148297
1L!
0M!
1N!
0O!
0P!
0Q!
0R!
0T!
#148421
1!!
14
1@
1}
#148749
0o!
#148776
1<!
#148798
1p!
#148873
1?!
#148916
0=!
#148971
b1001 .
#149489
0<!
#149773
07!
18!
0N!
1O!
0i
1j
0t
0u
#149897
0!!
1"!
#150000
0"
0*
#150971
0+
#151869
0,
#155000
1"
1*
#155971
1+
#156869
1,
#157815
b1001 _!
b110 n!
#158000
1$
b0 (
b0 -
1v!
b0 x!
#158297
0L!
0M!
0N!
0O!
0P!
0Q!
0R!
0T!
#158421
0"!
0}
#158606
1(!
1+!
#158749
1o!
#158776
0?!
#158798
0p!
#158897
1p!
#158916
1@!
#158971
b0 .
#159773
05!
08!
0L!
0O!
0g
0j
0r
0u
#159919
0(!
0+!
#160000
0"
0*
#160971
0+
#161869
0,
#165000
1"
1*
#165971
1+
#166869
1,
#167815
b111 n!
#168000
1$
b110 (
b110 -
1v!
b110 x!
#168297
0L!
0M!
0N!
0O!
0P!
0Q!
0R!
0T!
#168580
0q!
#168749
0o!
#168776
1H!
1s!
#168798
0p!
#168873
0@!
#168971
b110 .
#169773
16!
17!
1M!
1N!
1h
1i
0s
0t
#169897
1B!
#169923
1C!
#170000
0"
0*
#170971
0+
#171869
0,
#175000
1"
1*
#175971
1+
#176869
1,
#177815
b110 a!
b1000 n!
#178000
1$
b111 (
b111 -
1v!
b111 x!
#178297
05!
06!
07!
08!
09!
0:!
0;!
0>!
0L!
0M!
0N!
0O!
0P!
0Q!
0R!
0T!
#178413
1)!
1*!
0C!
#178421
0B!
#178456
0r
1s
1t
0u
0v
0w
0x
0{
#178580
14!
0H!
1q!
#178606
0)!
0*!
1|
#178749
1o!
#178776
1&!
13!
04!
0q!
0s!
#178798
1p!
0|
#178873
0&!
03!
1S!
#178897
0p!
#178916
1K!
0S!
#178971
b111 .
#179075
1s!
#179349
12!
#179446
02!
#179773
05!
0L!
1g
1r
#180000
0"
0*
#180971
0+
#181869
0,
#185000
1"
1*
#185971
1+
#186869
1,
#187815
b111 b!
b1001 n!
#188000
1$
b1001 (
b1001 -
1v!
b1001 x!
#188297
1L!
1M!
1N!
0O!
0P!
0Q!
0R!
0T!
#188421
10
16
1<
#188580
0K!
#188749
0o!
#188798
1p!
#188916
1S!
#188971
b1001 .
#189773
06!
07!
08!
0M!
0N!
1O!
0h
0i
1j
0s
0t
1u
#190000
0"
0*
#190971
0+
#191869
0,
#195000
1"
1*
#195971
1+
#196869
1,
#197815
b1001 c!
b1010 n!
#198000
1$
b10 (
b10 -
1v!
b10 x!
#198297
0L!
0M!
0N!
0O!
0P!
0Q!
0R!
0T!
#198580
1K!
#198749
1o!
#198798
0p!
#198873
0K!
0S!
1o
#198897
1p!
#198971
b10 .
#199773
05!
06!
08!
0L!
0M!
0O!
0g
1h
0j
0r
1s
0u
#200000
0"
0*
#200971
0+
#201869
0,
#205000
1"
1*
#205971
1+
#206869
1,
#207815
b10 V!
b1011 n!
#208000
1$
b100 (
b100 -
1v!
b100 x!
#208297
0L!
1M!
0N!
0O!
0P!
0Q!
0R!
0T!
#208580
1q
1q!
#208749
0o!
#208798
0p!
#208873
0o
#208971
b100 .
#209773
06!
07!
0M!
1N!
0h
1i
0s
1t
#210000
0"
0*
#210971
0+
#211869
0,
#215000
1"
1*
#215971
1+
#216869
1,
#217815
b100 W!
b1100 n!
#218000
1#
0$
1j!
0v!
#218297
0L!
0M!
0N!
0O!
0P!
0Q!
0R!
0T!
#218580
0q
0q!
#218749
1o!
#218776
1/!
1q!
#218798
1p!
#218873
1&!
0/!
1z
#218897
0p!
#218916
0&!
#218971
1k!
0w!
#219773
0o!
#219889
1|
#219897
1_
0d
1h!
0s!
1t!
0u!
#220000
0"
0*
#220346
0o!
0r!
#220432
1y
#220470
0D
1d
0q!
0z
#220971
0+
#221043
1A
0y
#221869
0,
#225000
1"
1*
#225971
1+
#226869
1,
#227815
b1000 `
b1 d!
#228000
1#
1j!
#228297
0e!
0g!
#228456
1f!
#228580
06
19
0<
0@
1B
0E
1F
#229436
08
1D
#230000
0"
0*
#230009
15
0A
#230971
0+
#231426
b1000 )
#231869
0,
#235000
1"
1*
#235971
1+
#236869
1,
#237815
b10 `
b10 d!
#238000
1#
1j!
#238297
1e!
0f!
0g!
#238456
1f!
0g!
#238580
16
09
1<
1@
0B
1E
0F
#238776
00
13
04
0<
0@
#239436
18
0D
#239632
02
#240000
0"
0*
#240009
05
1A
#240205
1/
#240971
0+
#241426
b10 )
#241869
0,
#245000
1"
1*
#245971
1+
#246869
1,
#247815
b1001 `
b11 d!
#248000
1#
1j!
#248297
0e!
1g!
#248456
0f!
#248580
06
1:
1<
1@
0E
#249436
1D
#250000
0"
0*
#250009
0A
#250971
0+
#251426
b1001 )
#251869
0,
#255000
1"
1*
#255971
1+
#256869
1,
#257815
b1 `
b100 d!
#258000
1#
1j!
#258297
1e!
1f!
0g!
#258413
1i!
#258456
0f!
0g!
#258580
16
0:
0<
0@
1E
#258606
0i!
#258749
1g!
#258776
10
12
03
14
08
1<
0>
1@
#259123
18
1>
#259319
02
0>
#259349
0/
15
1;
#259696
05
0;
#259892
1/
1;
#260000
0"
0*
#260971
0+
#261426
b1 )
#261869
0,
#265000
1"
1*
#265971
1+
#266869
1,
#267815
b101 `
b101 d!
#268000
1#
1j!
#268297
0e!
1g!
#268456
1f!
#268580
06
19
0<
0@
1B
0E
1F
#269123
1>
0D
#269696
0;
1A
#270000
0"
0*
#270971
0+
#271426
b101 )
#271869
0,
#275000
1"
1*
#275971
1+
#276869
1,
#277815
b1001 `
b110 d!
#278000
1#
1j!
#278297
1e!
0f!
1g!
#278456
1f!
1g!
#278580
16
09
1<
1@
0B
1E
0F
#278606
1i!
#278776
00
13
04
0<
0@
#278897
0i!
#279123
0>
1D
#279319
12
1>
#279696
1;
0A
#279892
0/
0;
#280000
0"
0*
#280971
0+
#281426
b1001 )
#281869
0,
#285000
1"
1*
#285971
1+
#286869
1,
#287815
b0 `
b111 d!
#288000
1#
1j!
#288297
0e!
0g!
#288456
0f!
#288580
06
1:
1<
1@
0E
#288897
1i!
#289123
08
0>
#289696
15
1;
#290000
0"
0*
#290971
0+
#291426
b0 )
#291869
0,
#295000
1"
1*
#295971
1+
#296869
1,
#297815
b110 `
b1000 d!
#298000
1#
1j!
#298297
1e!
1f!
1g!
#298413
0i!
#298456
0f!
1g!
#298580
16
0:
0<
0@
1E
#298749
0g!
#298776
10
02
03
14
05
18
0;
1<
1>
1@
#298798
1i!
#298916
08
1;
0>
0D
0J
0P
0V
0\
#299349
0;
#299489
15
#299632
1/
1;
#300000
0"
0*
#300971
0+
#301426
b110 )
#301869
0,
#305000
1"
1*
#305971
1+
#306869
1,
#307815
b111 `
b1001 d!
#308000
1#
1j!
#308297
0e!
0g!
#308456
1f!
#308580
06
19
0<
0@
1B
0E
1F
#309436
05
0;
1A
#310000
0"
0*
#310971
0+
#311426
b111 )
#311869
0,
#315000
1"
1*
#315971
1+
#316869
1,
#317815
b1001 `
b1010 d!
#318000
1#
1j!
#318297
1e!
0f!
0g!
#318456
1f!
0g!
#318580
16
09
1<
1@
0B
1E
0F
#318776
00
13
04
0<
0@
#319436
15
1;
0A
#319632
0/
0;
#320000
0"
0*
#320971
0+
#321426
b1001 )
#321869
0,
#325000
1"
1*
#325971
1+
#326869
1,
#327815
b10 `
b1011 d!
#328000
1#
1j!
#328297
0e!
1g!
#328456
0f!
#328580
06
1:
1<
1@
0E
#329436
05
1;
#330000
0"
0*
#330971
0+
#331426
b10 )
#331869
0,
#335000
1"
1*
#335971
1+
#336869
1,
#337815
b100 `
b1100 d!
#338000
1#
1j!
#338297
1e!
1f!
0g!
#338413
0i!
#338456
0f!
0g!
#338580
16
0:
0<
0@
1E
#338606
1i!
#338749
1g!
#338776
10
03
14
1<
1@
#338916
0;
#340000
0"
0*
#340971
0+
#341426
b100 )
#341869
0,
#345000
1"
1*
#345971
1+
#346869
1,
#347815
b0 `
b1101 d!
#348000
1#
1j!
#348297
0e!
1g!
#348456
1f!
#348580
06
19
0<
0@
1B
0E
1F
#350000
0"
0*
#350971
0+
#351426
b0 )
#351869
0,
#355000
1"
1*
#355971
1+
#356869
1,
#357815
b1110 d!
#358000
1#
1j!
#358297
1e!
0f!
1g!
#358456
1f!
1g!
#358580
16
09
1<
1@
0B
1E
0F
#358606
0i!
#358776
00
13
04
0<
0@
#358897
1i!
#360000
0"
0*
#360971
0+
#361869
0,
#365000
1"
1*
#365971
1+
#366869
1,
#367815
b1111 d!
#368000
0#
0j!
#368297
0e!
0g!
#368456
0f!
#368580
06
1:
1<
1@
0E
#368897
0i!
#368971
0k!
#369897
0_
0h!
1u!
#370000
0"
0*
#370346
0o!
#370470
12
18
1>
1D
1J
1P
1V
1\
0d
#370971
0+
#371869
0,
#375000
1"
1*
#375971
1+
#376869
1,
#377815
1c
