fifo_dipesh_git/fifo_dipesh_git.sim/sim_1/synth/func/xsim/f.vcd
$date
   Sun Aug 14 16:36:46 2022
$end
$version
  2022.1
$end
$timescale
  1ps
$end
$scope module test $end
$var reg 1 ! reset $end
$var reg 1 " clk $end
$var reg 1 # read_n $end
$var reg 1 $ write_n $end
$var wire 1 % full $end
$var wire 1 & empty $end
$var wire 1 ' invalid $end
$var reg 8 ( data_in [7:0] $end
$var wire 8 ) data_out [7:0] $end
$scope module dut1 $end
$var wire 1 * clk $end
$var wire 1 + clk_IBUF $end
$var wire 1 , clk_IBUF_BUFG $end
$var wire 8 - data_in [7:0] $end
$var wire 8 . data_in_IBUF [7:0] $end
$var wire 8 ) data_out [7:0] $end
$var wire 1 / \data_out[0]_i_1_n_0  $end
$var wire 1 0 \data_out[0]_i_2_n_0  $end
$var wire 1 1 \data_out[0]_i_3_n_0  $end
$var wire 1 2 \data_out[0]_i_4_n_0  $end
$var wire 1 3 \data_out[0]_i_5_n_0  $end
$var wire 1 4 \data_out[0]_i_6_n_0  $end
$var wire 1 5 \data_out[1]_i_1_n_0  $end
$var wire 1 6 \data_out[1]_i_2_n_0  $end
$var wire 1 7 \data_out[1]_i_3_n_0  $end
$var wire 1 8 \data_out[1]_i_4_n_0  $end
$var wire 1 9 \data_out[1]_i_5_n_0  $end
$var wire 1 : \data_out[1]_i_6_n_0  $end
$var wire 1 ; \data_out[2]_i_1_n_0  $end
$var wire 1 < \data_out[2]_i_2_n_0  $end
$var wire 1 = \data_out[2]_i_3_n_0  $end
$var wire 1 > \data_out[2]_i_4_n_0  $end
$var wire 1 ? \data_out[2]_i_5_n_0  $end
$var wire 1 @ \data_out[2]_i_6_n_0  $end
$var wire 1 A \data_out[3]_i_1_n_0  $end
$var wire 1 B \data_out[3]_i_2_n_0  $end
$var wire 1 C \data_out[3]_i_3_n_0  $end
$var wire 1 D \data_out[3]_i_4_n_0  $end
$var wire 1 E \data_out[3]_i_5_n_0  $end
$var wire 1 F \data_out[3]_i_6_n_0  $end
$var wire 1 G \data_out[4]_i_1_n_0  $end
$var wire 1 H \data_out[4]_i_2_n_0  $end
$var wire 1 I \data_out[4]_i_3_n_0  $end
$var wire 1 J \data_out[4]_i_4_n_0  $end
$var wire 1 K \data_out[4]_i_5_n_0  $end
$var wire 1 L \data_out[4]_i_6_n_0  $end
$var wire 1 M \data_out[5]_i_1_n_0  $end
$var wire 1 N \data_out[5]_i_2_n_0  $end
$var wire 1 O \data_out[5]_i_3_n_0  $end
$var wire 1 P \data_out[5]_i_4_n_0  $end
$var wire 1 Q \data_out[5]_i_5_n_0  $end
$var wire 1 R \data_out[5]_i_6_n_0  $end
$var wire 1 S \data_out[6]_i_1_n_0  $end
$var wire 1 T \data_out[6]_i_2_n_0  $end
$var wire 1 U \data_out[6]_i_3_n_0  $end
$var wire 1 V \data_out[6]_i_4_n_0  $end
$var wire 1 W \data_out[6]_i_5_n_0  $end
$var wire 1 X \data_out[6]_i_6_n_0  $end
$var wire 1 Y \data_out[7]_i_1_n_0  $end
$var wire 1 Z \data_out[7]_i_2_n_0  $end
$var wire 1 [ \data_out[7]_i_3_n_0  $end
$var wire 1 \ \data_out[7]_i_4_n_0  $end
$var wire 1 ] \data_out[7]_i_5_n_0  $end
$var wire 1 ^ \data_out[7]_i_6_n_0  $end
$var wire 1 _ \data_out[7]_i_7_n_0  $end
$var wire 8 ` data_out_OBUF [7:0] $end
$var wire 1 & empty $end
$var wire 1 a empty_OBUF $end
$var wire 1 % full $end
$var wire 1 b full_OBUF $end
$var wire 1 ' invalid $end
$var wire 1 c invalid_OBUF $end
$var wire 1 d invalid_i_1_n_0 $end
$var wire 1 e \mem[0][7]_i_1_n_0  $end
$var wire 1 f \mem[0][7]_i_2_n_0  $end
$var wire 1 g \mem[10][0]_i_1_n_0  $end
$var wire 1 h \mem[10][1]_i_1_n_0  $end
$var wire 1 i \mem[10][2]_i_1_n_0  $end
$var wire 1 j \mem[10][3]_i_1_n_0  $end
$var wire 1 k \mem[10][4]_i_1_n_0  $end
$var wire 1 l \mem[10][5]_i_1_n_0  $end
$var wire 1 m \mem[10][6]_i_1_n_0  $end
$var wire 1 n \mem[10][7]_i_1_n_0  $end
$var wire 1 o \mem[10][7]_i_2_n_0  $end
$var wire 1 p \mem[10][7]_i_3_n_0  $end
$var wire 1 q \mem[11][7]_i_1_n_0  $end
$var wire 1 r \mem[12][0]_i_1_n_0  $end
$var wire 1 s \mem[12][1]_i_1_n_0  $end
$var wire 1 t \mem[12][2]_i_1_n_0  $end
$var wire 1 u \mem[12][3]_i_1_n_0  $end
$var wire 1 v \mem[12][4]_i_1_n_0  $end
$var wire 1 w \mem[12][5]_i_1_n_0  $end
$var wire 1 x \mem[12][6]_i_1_n_0  $end
$var wire 1 y \mem[12][7]_i_1_n_0  $end
$var wire 1 z \mem[12][7]_i_2_n_0  $end
$var wire 1 { \mem[12][7]_i_3_n_0  $end
$var wire 1 | \mem[12][7]_i_4_n_0  $end
$var wire 1 } \mem[13][0]_i_1_n_0  $end
$var wire 1 ~ \mem[13][1]_i_1_n_0  $end
$var wire 1 !! \mem[13][2]_i_1_n_0  $end
$var wire 1 "! \mem[13][3]_i_1_n_0  $end
$var wire 1 #! \mem[13][4]_i_1_n_0  $end
$var wire 1 $! \mem[13][5]_i_1_n_0  $end
$var wire 1 %! \mem[13][6]_i_1_n_0  $end
$var wire 1 &! \mem[13][7]_i_1_n_0  $end
$var wire 1 '! \mem[13][7]_i_2_n_0  $end
$var wire 1 (! \mem[14][0]_i_1_n_0  $end
$var wire 1 )! \mem[14][1]_i_1_n_0  $end
$var wire 1 *! \mem[14][2]_i_1_n_0  $end
$var wire 1 +! \mem[14][3]_i_1_n_0  $end
$var wire 1 ,! \mem[14][4]_i_1_n_0  $end
$var wire 1 -! \mem[14][5]_i_1_n_0  $end
$var wire 1 .! \mem[14][6]_i_1_n_0  $end
$var wire 1 /! \mem[14][7]_i_1_n_0  $end
$var wire 1 0! \mem[14][7]_i_2_n_0  $end
$var wire 1 1! \mem[1][7]_i_1_n_0  $end
$var wire 1 2! \mem[2][7]_i_1_n_0  $end
$var wire 1 3! \mem[2][7]_i_2_n_0  $end
$var wire 1 4! \mem[3][7]_i_1_n_0  $end
$var wire 1 5! \mem[4][0]_i_1_n_0  $end
$var wire 1 6! \mem[4][1]_i_1_n_0  $end
$var wire 1 7! \mem[4][2]_i_1_n_0  $end
$var wire 1 8! \mem[4][3]_i_1_n_0  $end
$var wire 1 9! \mem[4][4]_i_1_n_0  $end
$var wire 1 :! \mem[4][5]_i_1_n_0  $end
$var wire 1 ;! \mem[4][6]_i_1_n_0  $end
$var wire 1 <! \mem[4][7]_i_1_n_0  $end
$var wire 1 =! \mem[4][7]_i_2_n_0  $end
$var wire 1 >! \mem[4][7]_i_3_n_0  $end
$var wire 1 ?! \mem[5][7]_i_1_n_0  $end
$var wire 1 @! \mem[6][7]_i_1_n_0  $end
$var wire 1 A! \mem[7][0]_i_1_n_0  $end
$var wire 1 B! \mem[7][1]_i_1_n_0  $end
$var wire 1 C! \mem[7][2]_i_1_n_0  $end
$var wire 1 D! \mem[7][3]_i_1_n_0  $end
$var wire 1 E! \mem[7][4]_i_1_n_0  $end
$var wire 1 F! \mem[7][5]_i_1_n_0  $end
$var wire 1 G! \mem[7][6]_i_1_n_0  $end
$var wire 1 H! \mem[7][7]_i_1_n_0  $end
$var wire 1 I! \mem[7][7]_i_2_n_0  $end
$var wire 1 J! \mem[8][7]_i_1_n_0  $end
$var wire 1 K! \mem[8][7]_i_2_n_0  $end
$var wire 1 L! \mem[9][0]_i_1_n_0  $end
$var wire 1 M! \mem[9][1]_i_1_n_0  $end
$var wire 1 N! \mem[9][2]_i_1_n_0  $end
$var wire 1 O! \mem[9][3]_i_1_n_0  $end
$var wire 1 P! \mem[9][4]_i_1_n_0  $end
$var wire 1 Q! \mem[9][5]_i_1_n_0  $end
$var wire 1 R! \mem[9][6]_i_1_n_0  $end
$var wire 1 S! \mem[9][7]_i_1_n_0  $end
$var wire 1 T! \mem[9][7]_i_2_n_0  $end
$var wire 8 U! \mem_reg[0]  [7:0] $end
$var wire 8 V! \mem_reg[10]  [7:0] $end
$var wire 8 W! \mem_reg[11]  [7:0] $end
$var wire 8 X! \mem_reg[12]  [7:0] $end
$var wire 8 Y! \mem_reg[13]  [7:0] $end
$var wire 8 Z! \mem_reg[14]  [7:0] $end
$var wire 8 [! \mem_reg[1]  [7:0] $end
$var wire 8 \! \mem_reg[2]  [7:0] $end
$var wire 8 ]! \mem_reg[3]  [7:0] $end
$var wire 8 ^! \mem_reg[4]  [7:0] $end
$var wire 8 _! \mem_reg[5]  [7:0] $end
$var wire 8 `! \mem_reg[6]  [7:0] $end
$var wire 8 a! \mem_reg[7]  [7:0] $end
$var wire 8 b! \mem_reg[8]  [7:0] $end
$var wire 8 c! \mem_reg[9]  [7:0] $end
$var wire 4 d! rd_pointer [3:0] $end
$var wire 1 e! \rd_pointer[0]_i_1_n_0  $end
$var wire 1 f! \rd_pointer[1]_i_1_n_0  $end
$var wire 1 g! \rd_pointer[2]_i_1_n_0  $end
$var wire 1 h! \rd_pointer[3]_i_1_n_0  $end
$var wire 1 i! \rd_pointer[3]_i_2_n_0  $end
$var wire 1 j! read_n $end
$var wire 1 k! read_n_IBUF $end
$var wire 1 l! reset $end
$var wire 1 m! reset_IBUF $end
$var wire 4 n! wr_pointer [3:0] $end
$var wire 1 o! \wr_pointer[0]_i_1_n_0  $end
$var wire 1 p! \wr_pointer[1]_i_1_n_0  $end
$var wire 1 q! \wr_pointer[2]_i_1_n_0  $end
$var wire 1 r! \wr_pointer[3]_i_1_n_0  $end
$var wire 1 s! \wr_pointer[3]_i_2_n_0  $end
$var wire 1 t! \wr_pointer[3]_i_3_n_0  $end
$var wire 1 u! \wr_pointer[3]_i_4_n_0  $end
$var wire 1 v! write_n $end
$var wire 1 w! write_n_IBUF $end
$upscope $end
$scope task rst $end
$upscope $end
$scope task read $end
$upscope $end
$scope task write $end
$var reg 8 x! wr_data [7:0] $end
$upscope $end
$upscope $end
$enddefinitions $end
#0
$dumpvars
x!
x!!
0"
x"!
x#
x#!
x$
x$!
x%
x%!
x&
x&!
x'
x'!
bx (
x(!
bx )
x)!
0*
x*!
0+
x+!
0,
x,!
bx -
x-!
bx .
x.!
x/
x/!
x0
x0!
x1
x1!
x2
x2!
x3
x3!
x4
x4!
x5
x5!
x6
x6!
x7
x7!
x8
x8!
x9
x9!
x:
x:!
x;
x;!
x<
x<!
x=
x=!
x>
x>!
x?
x?!
x@
x@!
xA
xA!
xB
xB!
xC
xC!
xD
xD!
xE
xE!
xF
xF!
xG
xG!
xH
xH!
xI
xI!
xJ
xJ!
xK
xK!
xL
xL!
xM
xM!
xN
xN!
xO
xO!
xP
xP!
xQ
xQ!
xR
xR!
xS
xS!
xT
xT!
xU
bx U!
xV
bx V!
xW
bx W!
xX
bx X!
xY
bx Y!
xZ
bx Z!
x[
bx [!
x\
bx \!
x]
bx ]!
x^
bx ^!
x_
bx _!
bx `
bx `!
xa
bx a!
xb
bx b!
xc
bx c!
xd
bx d!
xe
xe!
xf
xf!
xg
xg!
xh
xh!
xi
xi!
xj
xj!
xk
xk!
xl
xl!
xm
xm!
xn
bx n!
xo
xo!
xp
xp!
xq
xq!
xr
xr!
xs
xs!
xt
xt!
xu
xu!
xv
xv!
xw
xw!
xx
bx x!
xy
xz
x{
x|
x}
x~
$end
#100
0!!
0"!
0#!
0$!
0%
0%!
1&
0&!
0'
0'!
0(!
b0 )
0)!
0*!
0+!
0,!
0-!
0.!
0/
0/!
00
00!
01
01!
12
03
04
04!
05
x5!
06
x6!
07
x7!
18
x8!
09
x9!
0:
x:!
0;
x;!
0<
0=
1>
x>!
0?
0?!
0@
0@!
0A
0A!
0B
0B!
0C
0C!
1D
0D!
0E
0E!
0F
0F!
0G
0G!
0H
0H!
0I
0I!
1J
0K
0L
0L!
0M
0M!
0N
0N!
0O
0O!
1P
0P!
0Q
0Q!
0R
0R!
0S
0S!
0T
0T!
0U
b0 U!
1V
b0 V!
0W
b0 W!
0X
b0 X!
0Y
b0 Y!
0Z
b0 Z!
0[
b0 [!
1\
b0 \!
0]
b0 ]!
0^
b0 ^!
0_
b0 _!
b0 `
b0 `!
1a
b0 a!
0b
b0 b!
0c
b0 c!
b0 d!
1e!
0f!
0g!
0i!
b0 n!
xo!
0p!
0q
0q!
0r
0s
0s!
0t
0u
0v
0w
0x
0{
0}
0~
#5000
1"
1*
1+
1,
#10000
1!
0"
0#
0$
0*
0+
0,
12!
13!
1<!
1=!
1J!
1K!
1d
1e
1f
0g
0h
1h!
0i
0j
0j!
0k
0k!
0l
1l!
0m
1m!
1n
1o
0o!
0p
1r!
1t!
0u!
0v!
0w!
1y
1z
1|
#15000
1"
1*
1+
1,
#20000
0!
0"
1#
0*
0+
0,
02!
03!
0<!
0=!
0J!
0K!
0d
0e
0f
xg
xh
0h!
xi
xj
1j!
xk
1k!
xl
0l!
xm
0m!
0n
0o
0o!
xp
0r!
1u!
0y
0z
#25000
1"
1*
1+
1,
#28000
0#
1$
b11 (
b11 -
b11 .
15!
16!
07!
08!
09!
0:!
0;!
0>!
0L!
0M!
0N!
0O!
0P!
0Q!
0R!
0T!
1d
1f
1g
1h
0i
0j
0j!
0k
0k!
0l
0m
1o!
0p
0r
1r!
0s
0t
0t!
0u
0v
1v!
0w
1w!
0x
b11 x!
0{
0|
#30000
0"
0*
0+
0,
#35000
1"
1*
1+
1,
#38000
1$
b110 (
b110 -
b110 .
05!
17!
0L!
0N!
0g
1i
0r
0t
1v!
b110 x!
#40000
0"
0*
0+
0,
#45000
1"
1*
1+
1,
#48000
1#
0$
0d
0f
1j!
1k!
0o!
0r!
1t!
0v!
0w!
1|
#50000
0"
0*
0+
0,
#55000
1"
1*
1+
1,
#58000
1#
1j!
#60000
0"
0*
0+
0,
#65000
1"
1*
1+
1,
#68000
0#
1$
b1101 (
b1101 -
b1101 .
15!
06!
18!
0L!
0M!
0O!
1d
1f
1g
0h
1j
0j!
0k!
1o!
0r
1r!
0s
0t!
0u
1v!
1w!
b1101 x!
0|
#70000
0"
0*
0+
0,
#75000
1"
1*
1+
1,
#78000
1$
b100 (
b100 -
b100 .
05!
08!
0L!
0O!
0g
0j
0r
0u
1v!
b100 x!
#80000
0"
0*
0+
0,
#85000
1"
1*
1+
1,
#88000
1$
b101 (
b101 -
b101 .
15!
0L!
1g
0r
1v!
b101 x!
#90000
0"
0*
0+
0,
#95000
1"
1*
1+
1,
#98000
1$
b1000 (
b1000 -
b1000 .
05!
07!
18!
0L!
0N!
0O!
0g
0i
1j
0r
0t
0u
1v!
b1000 x!
#100000
0"
0*
0+
0,
#105000
1"
1*
1+
1,
#105100
0&
11!
1E
0L!
0M!
0N!
1O!
0P!
0Q!
0R!
0T!
b1000 U!
0a
0f
b1 n!
0o!
1p!
#108000
1$
b10 (
b10 -
b10 .
16!
08!
1M!
0O!
1h
0j
0s
0u
1v!
b10 x!
#110000
0"
0*
0+
0,
#115000
1"
1*
1+
1,
#115100
01!
13!
0L!
0M!
0N!
0O!
0P!
0Q!
0R!
0T!
b10 [!
b10 n!
1o!
#118000
1$
b1001 (
b1001 -
b1001 .
15!
06!
18!
0L!
0M!
0O!
1g
0h
1j
0r
0s
0u
1v!
b1001 x!
#120000
0"
0*
0+
0,
#125000
1"
1*
1+
1,
#125100
02!
03!
14!
1L!
0M!
0N!
1O!
0P!
0Q!
0R!
0T!
b1001 \!
b11 n!
0o!
0p!
1q!
#128000
1$
b1 (
b1 -
b1 .
08!
0O!
0j
0u
1v!
b1 x!
#130000
0"
0*
0+
0,
#135000
1"
1*
1+
1,
#135100
04!
1=!
0L!
0M!
0N!
0O!
0P!
0Q!
0R!
0T!
b1 ]!
b100 n!
1o!
#138000
1$
b101 (
b101 -
b101 .
17!
0N!
1i
0t
1v!
b101 x!
#140000
0"
0*
0+
0,
#145000
1"
1*
1+
1,
#145100
1!!
14
0<!
0=!
1?!
1@
1L!
0M!
1N!
0O!
0P!
0Q!
0R!
0T!
b101 ^!
b101 n!
0o!
1p!
1}
#148000
0!!
1"!
1$
b1001 (
b1001 -
b1001 .
07!
18!
0N!
1O!
0i
1j
0t
0u
1v!
b1001 x!
#150000
0"
0*
0+
0,
#155000
1"
1*
1+
1,
#155100
0"!
1(!
1+!
0?!
1@!
0L!
0M!
0N!
0O!
0P!
0Q!
0R!
0T!
b1001 _!
b110 n!
1o!
0}
#158000
1$
b0 (
0(!
0+!
b0 -
b0 .
05!
08!
0L!
0O!
0g
0j
0r
0u
1v!
b0 x!
#160000
0"
0*
0+
0,
#165000
1"
1*
1+
1,
#165100
0@!
1H!
0L!
0M!
0N!
0O!
0P!
0Q!
0R!
0T!
b111 n!
0o!
0p!
0q!
1s!
#168000
1$
b110 (
b110 -
b110 .
16!
17!
1B!
1C!
1M!
1N!
1h
1i
0s
0t
1v!
b110 x!
#170000
0"
0*
0+
0,
#175000
1"
1*
1+
1,
#175100
05!
06!
07!
08!
09!
0:!
0;!
0>!
0B!
0C!
0H!
1K!
0L!
0M!
0N!
0O!
0P!
0Q!
0R!
0T!
b110 a!
b1000 n!
1o!
0r
1s
1t
0u
0v
0w
0x
0{
#178000
1$
b111 (
b111 -
b111 .
05!
0L!
1g
1r
1v!
b111 x!
#180000
0"
0*
0+
0,
#185000
1"
1*
1+
1,
#185100
10
16
1<
0K!
1L!
1M!
1N!
0O!
0P!
0Q!
0R!
1S!
0T!
b111 b!
b1001 n!
0o!
1p!
#188000
1$
b1001 (
b1001 -
b1001 .
06!
07!
08!
0M!
0N!
1O!
0h
0i
1j
0s
0t
1u
1v!
b1001 x!
#190000
0"
0*
0+
0,
#195000
1"
1*
1+
1,
#195100
0L!
0M!
0N!
0O!
0P!
0Q!
0R!
0S!
0T!
b1001 c!
b1010 n!
1o
1o!
#198000
1$
b10 (
b10 -
b10 .
05!
06!
08!
0L!
0M!
0O!
0g
1h
0j
0r
1s
0u
1v!
b10 x!
#200000
0"
0*
0+
0,
#205000
1"
1*
1+
1,
#205100
0L!
1M!
0N!
0O!
0P!
0Q!
0R!
0T!
b10 V!
b1011 n!
0o
0o!
0p!
1q
1q!
#208000
1$
b100 (
b100 -
b100 .
06!
07!
0M!
1N!
0h
1i
0s
1t
1v!
b100 x!
#210000
0"
0*
0+
0,
#215000
1"
1*
1+
1,
#215100
0L!
0M!
0N!
0O!
0P!
0Q!
0R!
0T!
b100 W!
b1100 n!
1o!
0q
1z
#218000
1#
0$
1A
0D
1_
1d
1h!
1j!
1k!
0o!
0q!
0r!
0s!
1t!
0u!
0v!
0w!
0y
0z
1|
#220000
0"
0*
0+
0,
#225000
1"
1*
1+
1,
#225100
b1000 )
15
06
08
19
0<
0@
0A
1B
1D
0E
1F
b1000 `
b1 d!
0e!
1f!
0g!
#228000
1#
1j!
#230000
0"
0*
0+
0,
#235000
1"
1*
1+
1,
#235100
b10 )
1/
00
02
13
04
05
16
18
09
1A
0B
0D
1E
0F
b10 `
b10 d!
1e!
1f!
0g!
#238000
1#
1j!
#240000
0"
0*
0+
0,
#245000
1"
1*
1+
1,
#245100
b1001 )
06
1:
1<
1@
0A
1D
0E
b1001 `
b11 d!
0e!
0f!
1g!
#248000
1#
1j!
#250000
0"
0*
0+
0,
#255000
1"
1*
1+
1,
#255100
b1 )
1/
10
02
03
14
05
16
18
0:
1;
0>
1E
b1 `
b100 d!
1e!
0f!
1g!
#258000
1#
1j!
#260000
0"
0*
0+
0,
#265000
1"
1*
1+
1,
#265100
b101 )
06
19
0;
0<
1>
0@
1A
1B
0D
0E
1F
b101 `
b101 d!
0e!
1f!
1g!
#268000
1#
1j!
#270000
0"
0*
0+
0,
#275000
1"
1*
1+
1,
#275100
b1001 )
0/
00
12
13
04
16
09
0A
0B
1D
1E
0F
b1001 `
b110 d!
1e!
1f!
1g!
#278000
1#
1j!
#280000
0"
0*
0+
0,
#285000
1"
1*
1+
1,
#285100
b0 )
15
06
08
1:
1;
1<
0>
1@
0E
b0 `
b111 d!
0e!
0f!
0g!
1i!
#288000
1#
1j!
#290000
0"
0*
0+
0,
#295000
1"
1*
1+
1,
#295100
b110 )
1/
10
02
03
14
15
16
0:
0D
1E
0J
0P
0V
0\
b110 `
b1000 d!
1e!
0f!
0g!
#298000
1#
1j!
#300000
0"
0*
0+
0,
#305000
1"
1*
1+
1,
#305100
b111 )
05
06
19
0;
0<
0@
1A
1B
0E
1F
b111 `
b1001 d!
0e!
1f!
0g!
#308000
1#
1j!
#310000
0"
0*
0+
0,
#315000
1"
1*
1+
1,
#315100
b1001 )
0/
00
13
04
15
16
09
0A
0B
1E
0F
b1001 `
b1010 d!
1e!
1f!
0g!
#318000
1#
1j!
#320000
0"
0*
0+
0,
#325000
1"
1*
1+
1,
#325100
b10 )
05
06
1:
1;
1<
1@
0E
b10 `
b1011 d!
0e!
0f!
1g!
#328000
1#
1j!
#330000
0"
0*
0+
0,
#335000
1"
1*
1+
1,
#335100
b100 )
10
03
14
16
0:
0;
1E
b100 `
b1100 d!
1e!
0f!
1g!
#338000
1#
1j!
#340000
0"
0*
0+
0,
#345000
1"
1*
1+
1,
#345100
b0 )
06
19
0<
0@
1B
0E
1F
b0 `
b1101 d!
0e!
1f!
1g!
#348000
1#
1j!
#350000
0"
0*
0+
0,
#355000
1"
1*
1+
1,
#355100
00
13
04
16
09
0B
1E
0F
b1110 d!
1e!
1f!
1g!
#358000
1#
1j!
#360000
0"
0*
0+
0,
#365000
1"
1*
1+
1,
#365100
06
1:
1<
1@
0E
b1111 d!
0e!
0f!
0g!
0i!
#368000
0#
12
18
1>
1D
1J
1P
1V
1\
0_
0d
0h!
0j!
0k!
0o!
1u!
#370000
0"
0*
0+
0,
#375000
1"
1*
1+
1,
#375100
1'
1c
